<?xml version="1.0" encoding="UTF-8"?>
<UndoHistory>
  <UndoTransaction tv-sec="1480791662" tv-usec="140723472989280" name="paste">
    <StatefulDiffCommand obj-id="196" type-name="ARDOUR::MidiPlaylist">
      <Changes>
        <Regions>
          <Add id="2530"/>
        </Regions>
      </Changes>
    </StatefulDiffCommand>
  </UndoTransaction>
  <UndoTransaction tv-sec="1480791664" tv-usec="140723472989280" name="region drag">
    <StatefulDiffCommand obj-id="2518" type-name="ARDOUR::MidiRegion">
      <Changes>
        <position from="235848128" to="235959872"/>
        <beat from="13102.6737778" to="13108.8817778"/>
      </Changes>
    </StatefulDiffCommand>
  </UndoTransaction>
  <UndoTransaction tv-sec="1480791665" tv-usec="140723472989280" name="copiar objects"/>
  <UndoTransaction tv-sec="1480791665" tv-usec="140723472989280" name="paste">
    <StatefulDiffCommand obj-id="196" type-name="ARDOUR::MidiPlaylist">
      <Changes>
        <Regions>
          <Add id="2545"/>
        </Regions>
      </Changes>
    </StatefulDiffCommand>
  </UndoTransaction>
  <UndoTransaction tv-sec="1480791668" tv-usec="140723472989280" name="region drag">
    <StatefulDiffCommand obj-id="2545" type-name="ARDOUR::MidiRegion">
      <Changes>
        <position from="236524800" to="238945920"/>
        <beat from="13140.2666667" to="13274.7733333"/>
      </Changes>
    </StatefulDiffCommand>
  </UndoTransaction>
  <UndoTransaction tv-sec="1480791684" tv-usec="140723472989280" name="quantize">
    <NoteDiffCommand midi-source="2511">
      <ChangedNotes>
        <Change property="StartTime" old="14.0421" new="14.0399" id="225777"/>
        <Change property="Length" old="4.73078" new="4.71875" id="225777"/>
        <Change property="StartTime" old="14.0502" new="14.0419" id="225778"/>
        <Change property="Length" old="10.4587" new="10.4688" id="225778"/>
        <Change property="StartTime" old="14.0767" new="14.072" id="225779"/>
        <Change property="Length" old="13.7767" new="13.7812" id="225779"/>
        <Change property="StartTime" old="19.3222" new="19.3209" id="225795"/>
        <Change property="StartTime" old="57.0769" new="57.072" id="225841"/>
        <Change property="Length" old="5.472" new="5.46875" id="225841"/>
        <Change property="StartTime" old="57.0849" new="57.074" id="225842"/>
        <Change property="Length" old="3.80856" new="3.8125" id="225842"/>
        <Change property="StartTime" old="57.1062" new="57.1028" id="225843"/>
        <Change property="Length" old="6.50056" new="6.5" id="225843"/>
        <Change property="StartTime" old="62.189" new="62.1938" id="225901"/>
        <Change property="Length" old="1.37911" new="1.375" id="225901"/>
        <Change property="StartTime" old="63.3461" new="63.3503" id="225903"/>
        <Change property="Length" old="1.5495" new="1.53125" id="225903"/>
        <Change property="StartTime" old="64.5713" new="64.5706" id="225906"/>
        <Change property="Length" old="3.364" new="3.375" id="225906"/>
        <Change property="StartTime" old="67.6396" new="67.6346" id="225978"/>
        <Change property="Length" old="1.24028" new="1.25" id="225978"/>
        <Change property="StartTime" old="68.7036" new="68.6975" id="225980"/>
        <Change property="StartTime" old="69.8424" new="69.8493" id="225982"/>
        <Change property="Length" old="1.31722" new="1.3125" id="225982"/>
        <Change property="StartTime" old="71.0047" new="71.0071" id="225984"/>
        <Change property="Length" old="1.73878" new="1.75" id="225984"/>
        <Change property="StartTime" old="72.6077" new="72.6032" id="225986"/>
        <Change property="Length" old="2.31172" new="2.3125" id="225986"/>
        <Change property="StartTime" old="74.7302" new="74.7275" id="226030"/>
        <Change property="Length" old="2.74128" new="2.75" id="226030"/>
        <Change property="StartTime" old="77.3621" new="77.3543" id="226032"/>
        <Change property="Length" old="0.925278" new="0.9375" id="226032"/>
        <Change property="StartTime" old="78.2856" new="78.2883" id="226034"/>
        <Change property="Length" old="4.06589" new="4.0625" id="226034"/>
        <Change property="StartTime" old="81.7596" new="81.7583" id="226064"/>
        <Change property="Length" old="7.84806" new="7.84375" id="226064"/>
        <Change property="StartTime" old="85.3994" new="85.4105" id="226066"/>
        <Change property="Length" old="5.48272" new="5.46875" id="226066"/>
        <Change property="StartTime" old="87.1808" new="87.1918" id="226067"/>
        <Change property="Length" old="11.6107" new="11.5938" id="226067"/>
        <Change property="StartTime" old="90.6982" new="90.6961" id="226132"/>
        <Change property="Length" old="1.33856" new="1.34375" id="226132"/>
        <Change property="StartTime" old="91.8817" new="91.8826" id="226134"/>
        <Change property="Length" old="1.3445" new="1.34375" id="226134"/>
        <Change property="StartTime" old="93.0661" new="93.0693" id="226136"/>
        <Change property="Length" old="1.25617" new="1.25" id="226136"/>
        <Change property="StartTime" old="94.1969" new="94.1958" id="226138"/>
        <Change property="Length" old="1.30656" new="1.3125" id="226138"/>
        <Change property="StartTime" old="95.3625" new="95.3544" id="226238"/>
        <Change property="Length" old="1.32761" new="1.34375" id="226238"/>
        <Change property="StartTime" old="96.5489" new="96.5416" id="226240"/>
        <Change property="Length" old="1.12267" new="1.125" id="226240"/>
        <Change property="StartTime" old="97.5358" new="97.5383" id="226242"/>
        <Change property="Length" old="2.16761" new="2.15625" id="226242"/>
        <Change property="StartTime" old="98.4244" new="98.4167" id="226244"/>
        <Change property="Length" old="1.27367" new="1.28125" id="226244"/>
        <Change property="StartTime" old="99.6293" new="99.632" id="226246"/>
        <Change property="Length" old="1.1995" new="1.1875" id="226246"/>
        <Change property="StartTime" old="100.703" new="100.697" id="226249"/>
        <Change property="Length" old="4.31994" new="4.3125" id="226249"/>
        <Change property="StartTime" old="100.717" new="100.724" id="226250"/>
        <Change property="Length" old="4.24006" new="4.21875" id="226250"/>
        <Change property="StartTime" old="104.845" new="104.85" id="226287"/>
        <Change property="Length" old="3.54128" new="3.53125" id="226287"/>
        <Change property="StartTime" old="108.151" new="108.161" id="226290"/>
        <Change property="Length" old="2.54233" new="2.53125" id="226290"/>
        <Change property="StartTime" old="110.621" new="110.63" id="226376"/>
        <Change property="Length" old="0.986667" new="0.96875" id="226376"/>
        <Change property="StartTime" old="111.51" new="111.508" id="226378"/>
        <Change property="Length" old="1.34011" new="1.34375" id="226378"/>
        <Change property="StartTime" old="112.784" new="112.788" id="226380"/>
        <Change property="Length" old="1.14928" new="1.15625" id="226380"/>
        <Change property="StartTime" old="113.959" new="113.949" id="226383"/>
        <Change property="Length" old="1.00272" new="1.03125" id="226383"/>
        <Change property="StartTime" old="114.866" new="114.855" id="226384"/>
        <Change property="Length" old="1.35461" new="1.375" id="226384"/>
        <Change property="StartTime" old="116.173" new="116.166" id="226386"/>
        <Change property="Length" old="1.21067" new="1.21875" id="226386"/>
        <Change property="StartTime" old="117.378" new="117.382" id="226409"/>
        <Change property="Length" old="3.82383" new="3.8125" id="226409"/>
        <Change property="StartTime" old="123.941" new="123.944" id="226475"/>
        <Change property="Length" old="6.55472" new="6.5625" id="226475"/>
        <Change property="StartTime" old="123.941" new="123.944" id="226476"/>
        <Change property="Length" old="7.16544" new="7.15625" id="226476"/>
        <Change property="StartTime" old="123.957" new="123.948" id="226477"/>
        <Change property="Length" old="3.5595" new="3.5625" id="226477"/>
        <Change property="StartTime" old="127.36" new="127.354" id="226478"/>
        <Change property="Length" old="3.51983" new="3.53125" id="226478"/>
        <Change property="StartTime" old="130.701" new="130.697" id="226481"/>
        <Change property="Length" old="1.23478" new="1.25" id="226481"/>
        <Change property="StartTime" old="131.83" new="131.823" id="226582"/>
        <Change property="Length" old="1.49794" new="1.5" id="226582"/>
        <Change property="StartTime" old="131.855" new="131.853" id="226583"/>
        <Change property="Length" old="0.546611" new="0.5625" id="226583"/>
        <Change property="StartTime" old="133.093" new="133.099" id="226586"/>
        <Change property="Length" old="3.3705" new="3.375" id="226586"/>
        <Change property="StartTime" old="133.095" new="133.1" id="226587"/>
        <Change property="Length" old="3.43256" new="3.4375" id="226587"/>
        <Change property="StartTime" old="136.408" new="136.413" id="226589"/>
        <Change property="Length" old="1.01328" new="1" id="226589"/>
        <Change property="StartTime" old="137.298" new="137.291" id="226592"/>
        <Change property="Length" old="1.09867" new="1.09375" id="226592"/>
        <Change property="StartTime" old="138.309" new="138.318" id="226594"/>
        <Change property="Length" old="1.28272" new="1.28125" id="226594"/>
        <Change property="StartTime" old="139.498" new="139.506" id="226680"/>
        <Change property="Length" old="1.00256" new="1" id="226680"/>
        <Change property="StartTime" old="140.453" new="140.447" id="226682"/>
        <Change property="Length" old="1.11978" new="1.125" id="226682"/>
        <Change property="StartTime" old="141.469" new="141.475" id="226684"/>
        <Change property="Length" old="1.47194" new="1.46875" id="226684"/>
        <Change property="StartTime" old="142.653" new="142.661" id="226686"/>
        <Change property="Length" old="1.26917" new="1.25" id="226686"/>
        <Change property="StartTime" old="143.871" new="143.88" id="226688"/>
        <Change property="Length" old="0.986722" new="0.96875" id="226688"/>
        <Change property="StartTime" old="144.773" new="144.762" id="226690"/>
        <Change property="Length" old="1.30389" new="1.3125" id="226690"/>
        <Change property="StartTime" old="145.975" new="145.976" id="226734"/>
        <Change property="Length" old="1.20561" new="1.21875" id="226734"/>
        <Change property="StartTime" old="147.151" new="147.161" id="226736"/>
        <Change property="Length" old="1.15467" new="1.15625" id="226736"/>
        <Change property="StartTime" old="148.194" new="148.195" id="226738"/>
        <Change property="Length" old="7.09878" new="7.09375" id="226738"/>
      </ChangedNotes>
      <AddedNotes/>
      <RemovedNotes/>
    </NoteDiffCommand>
  </UndoTransaction>
  <UndoTransaction tv-sec="1480791693" tv-usec="140723472989280" name="region drag">
    <StatefulDiffCommand obj-id="2545" type-name="ARDOUR::MidiRegion">
      <Changes>
        <length from="2822143" to="2822144"/>
        <position from="238945920" to="235966080"/>
        <beat from="13274.7733333" to="13109.2266667"/>
      </Changes>
    </StatefulDiffCommand>
  </UndoTransaction>
  <UndoTransaction tv-sec="1480791697" tv-usec="140723472989280" name="region drag">
    <StatefulDiffCommand obj-id="2545" type-name="ARDOUR::MidiRegion">
      <Changes>
        <position from="235966080" to="238815552"/>
        <beat from="13109.2266667" to="13267.5306667"/>
      </Changes>
    </StatefulDiffCommand>
  </UndoTransaction>
  <UndoTransaction tv-sec="1480791848" tv-usec="140723472989280" name="eliminar selección">
    <NoteDiffCommand midi-source="2511">
      <ChangedNotes/>
      <AddedNotes/>
      <RemovedNotes>
        <note id="225779" note="66" channel="0" time="14.072" length="13.7812" velocity="72"/>
      </RemovedNotes>
    </NoteDiffCommand>
  </UndoTransaction>
  <UndoTransaction tv-sec="1480791850" tv-usec="140723472989280" name="eliminar selección">
    <NoteDiffCommand midi-source="2511">
      <ChangedNotes/>
      <AddedNotes/>
      <RemovedNotes>
        <note id="225778" note="62" channel="0" time="14.0419" length="10.4688" velocity="77"/>
      </RemovedNotes>
    </NoteDiffCommand>
  </UndoTransaction>
  <UndoTransaction tv-sec="1480791852" tv-usec="140723472989280" name="eliminar selección">
    <NoteDiffCommand midi-source="2511">
      <ChangedNotes/>
      <AddedNotes/>
      <RemovedNotes>
        <note id="226067" note="69" channel="0" time="87.1918" length="11.5938" velocity="76"/>
      </RemovedNotes>
    </NoteDiffCommand>
  </UndoTransaction>
  <UndoTransaction tv-sec="1480791854" tv-usec="140723472989280" name="eliminar selección">
    <NoteDiffCommand midi-source="2511">
      <ChangedNotes/>
      <AddedNotes/>
      <RemovedNotes>
        <note id="226409" note="61" channel="0" time="117.382" length="3.8125" velocity="63"/>
      </RemovedNotes>
    </NoteDiffCommand>
  </UndoTransaction>
  <UndoTransaction tv-sec="1480791857" tv-usec="140723472989280" name="eliminar selección">
    <NoteDiffCommand midi-source="2511">
      <ChangedNotes/>
      <AddedNotes/>
      <RemovedNotes>
        <note id="226386" note="66" channel="0" time="116.166" length="1.21875" velocity="71"/>
      </RemovedNotes>
    </NoteDiffCommand>
  </UndoTransaction>
  <UndoTransaction tv-sec="1480791945" tv-usec="140723472989280" name="capture">
    <StatefulDiffCommand obj-id="196" type-name="ARDOUR::MidiPlaylist">
      <Changes>
        <Regions>
          <Add id="2729"/>
        </Regions>
      </Changes>
    </StatefulDiffCommand>
  </UndoTransaction>
  <UndoTransaction tv-sec="1480791999" tv-usec="140723472989280" name="capture">
    <StatefulDiffCommand obj-id="196" type-name="ARDOUR::MidiPlaylist">
      <Changes>
        <Regions>
          <Add id="2740"/>
        </Regions>
      </Changes>
    </StatefulDiffCommand>
  </UndoTransaction>
  <UndoTransaction tv-sec="1480793381" tv-usec="140723472989280" name="reemplazar marca de métrica">
    <MementoCommand obj-id="51" type-name="ARDOUR::TempoMap">
      <TempoMap>
        <Tempo pulse="0.000000" frame="0" beats-per-minute="80.000000" note-type="4.000000" movable="no" active="yes" tempo-type="Ramp" lock-style="AudioTime" locked-to-meter="no"/>
        <Meter pulse="0.000000" bbt="1|1|0" beat="0.000000" note-type="8.000000" frame="0" lock-style="AudioTime" divisions-per-bar="7.000000" movable="no"/>
      </TempoMap>
      <TempoMap>
        <Tempo pulse="0.000000" frame="0" beats-per-minute="80.000000" note-type="4.000000" movable="no" active="yes" tempo-type="Ramp" lock-style="AudioTime" locked-to-meter="no"/>
        <Meter pulse="0.000000" bbt="1|1|0" beat="0.000000" note-type="4.000000" frame="0" lock-style="AudioTime" divisions-per-bar="7.000000" movable="no"/>
      </TempoMap>
    </MementoCommand>
  </UndoTransaction>
  <UndoTransaction tv-sec="1480804526" tv-usec="11818" name="capture">
    <StatefulDiffCommand obj-id="196" type-name="ARDOUR::MidiPlaylist">
      <Changes>
        <Regions>
          <Add id="3592"/>
        </Regions>
      </Changes>
    </StatefulDiffCommand>
  </UndoTransaction>
  <UndoTransaction tv-sec="1480804527" tv-usec="394292" name="eliminar objects">
    <StatefulDiffCommand obj-id="196" type-name="ARDOUR::MidiPlaylist">
      <Changes>
        <Regions>
          <Remove id="3592"/>
        </Regions>
      </Changes>
    </StatefulDiffCommand>
    <MementoCommand obj-id="39" type-name="SelectionMemento">
      <SelectionMemento mouse-mode="MouseObject" zoom="49664" left-frame="458349056" y-origin="0,000000">
        <Selection>
          <Region id="3592"/>
        </Selection>
      </SelectionMemento>
      <SelectionMemento mouse-mode="MouseObject" zoom="49664" left-frame="458349056" y-origin="0,000000">
        <Selection/>
      </SelectionMemento>
    </MementoCommand>
  </UndoTransaction>
  <UndoTransaction tv-sec="1480804576" tv-usec="357774" name="capture">
    <StatefulDiffCommand obj-id="196" type-name="ARDOUR::MidiPlaylist">
      <Changes>
        <Regions>
          <Add id="3606"/>
        </Regions>
      </Changes>
    </StatefulDiffCommand>
  </UndoTransaction>
  <UndoTransaction tv-sec="1480804595" tv-usec="195924" name="capture">
    <StatefulDiffCommand obj-id="196" type-name="ARDOUR::MidiPlaylist">
      <Changes>
        <Regions>
          <Add id="3617"/>
        </Regions>
      </Changes>
    </StatefulDiffCommand>
  </UndoTransaction>
</UndoHistory>
